<svg width="18" height="18" viewBox="0 0 18 18" fill="none" xmlns="http://www.w3.org/2000/svg">
<path fill-rule="evenodd" clip-rule="evenodd" d="M17.1956 0.100166C17.2703 0.151965 17.3313 0.221085 17.3734 0.301609C17.4155 0.382133 17.4375 0.471664 17.4375 0.562541V17.4375C17.4375 17.5867 17.3782 17.7298 17.2727 17.8353C17.1673 17.9408 17.0242 18 16.875 18H13.5C13.3508 18 13.2077 17.9408 13.1023 17.8353C12.9968 17.7298 12.9375 17.5867 12.9375 17.4375V15.75H11.8125V17.4375C11.8125 17.5867 11.7532 17.7298 11.6477 17.8353C11.5423 17.9408 11.3992 18 11.25 18H1.125C0.975816 18 0.832742 17.9408 0.727252 17.8353C0.621763 17.7298 0.5625 17.5867 0.5625 17.4375V10.6875C0.562561 10.5544 0.609852 10.4256 0.695958 10.324C0.782065 10.2225 0.901406 10.1548 1.03275 10.1329L7.3125 9.08667V3.93754C7.3125 3.82313 7.34739 3.71143 7.41252 3.61736C7.47764 3.52329 7.56991 3.45132 7.677 3.41104L16.677 0.0360406C16.762 0.00416385 16.8535 -0.00665325 16.9436 0.00451359C17.0337 0.0156804 17.1198 0.0484992 17.1945 0.100166H17.1956ZM8.4375 4.32679V9.56254C8.43744 9.69569 8.39015 9.8245 8.30404 9.92605C8.21793 10.0276 8.09859 10.0953 7.96725 10.1172L1.6875 11.1634V16.875H10.6875V15.1875C10.6875 15.0384 10.7468 14.8953 10.8523 14.7898C10.9577 14.6843 11.1008 14.625 11.25 14.625H13.5C13.6492 14.625 13.7923 14.6843 13.8977 14.7898C14.0032 14.8953 14.0625 15.0384 14.0625 15.1875V16.875H16.3125V1.37479L8.4375 4.32679Z" fill="black"/>
<path fill-rule="evenodd" clip-rule="evenodd" d="M7.3125 17.4375V9.5625H8.4375V17.4375H7.3125Z" fill="black"/>
<path d="M2.8125 12.375H3.9375V13.5H2.8125V12.375ZM5.0625 12.375H6.1875V13.5H5.0625V12.375ZM2.8125 14.625H3.9375V15.75H2.8125V14.625ZM5.0625 14.625H6.1875V15.75H5.0625V14.625ZM11.8125 3.375H12.9375V4.5H11.8125V3.375ZM14.0625 3.375H15.1875V4.5H14.0625V3.375ZM9.5625 5.625H10.6875V6.75H9.5625V5.625ZM11.8125 5.625H12.9375V6.75H11.8125V5.625ZM14.0625 5.625H15.1875V6.75H14.0625V5.625ZM11.8125 7.875H12.9375V9H11.8125V7.875ZM14.0625 7.875H15.1875V9H14.0625V7.875ZM9.5625 7.875H10.6875V9H9.5625V7.875ZM9.5625 10.125H10.6875V11.25H9.5625V10.125ZM11.8125 10.125H12.9375V11.25H11.8125V10.125ZM14.0625 10.125H15.1875V11.25H14.0625V10.125ZM9.5625 12.375H10.6875V13.5H9.5625V12.375ZM11.8125 12.375H12.9375V13.5H11.8125V12.375ZM14.0625 12.375H15.1875V13.5H14.0625V12.375Z" fill="black"/>
</svg>
